{	
    "interfaces": [	
        {	
            "interface_name": "ge-1/1/1",	
            "interface_configuration": [	
                {	
                    "unit": "33",	
                    "description": " NXG-SC-01 : VR-DIV-A : ge-1/1/2.32 ",	
                    "vlan_id": "32",	
                    "ipv4_address": "10.1.1.33/31"	
                },	
                {	
                    "unit": "35",	
                    "description": " NXG-SC-01 : VR-DIV-B : ge-1/1/2.34 ",	
                    "vlan_id": "34",	
                    "ipv4_address": "10.1.1.35/31"	
                },	
                {	
                    "unit": "37",	
                    "description": " NXG-SC-01 : VR-DIV-C : ge-1/1/2.36 ",	
                    "vlan_id": "36",	
                    "ipv4_address": "10.1.1.37/31"	
                }	
            ]	
        },	
        {	
            "interface_name": "ge-1/1/2",	
            "interface_configuration": [	
                {	
                    "unit": "32",	
                    "description": " NXG-SC-01 : VR-INSERTION : ge-1/1/0.33 ",	
                    "vlan_id": "32",	
                    "ipv4_address": "10.1.1.32/31"	
                },	
                {	
                    "unit": "34",	
                    "description": " NXG-SC-01 : VR-INSERTION : ge-1/1/0.35 ",	
                    "vlan_id": "34",	
                    "ipv4_address": "10.1.1.34/31"	
                },	
                {	
                    "unit": "36",	
                    "description": " NXG-SC-01 : VR-INSERTION : ge-1/1/0.37 ",	
                    "vlan_id": "36",	
                    "ipv4_address": "10.1.1.36/31"	
                }	
            ]	
        },	
        {	
            "interface_name": "ge-1/1/3",	
            "interface_configuration": [	
                {	
                    "unit": "200",	
                    "vlan_id": "200",	
                    "ipv4_address": "10.2.1.1/31"	
                },	
                {	
                    "unit": "201",	
                    "vlan_id": "201",	
                    "ipv4_address": "10.2.1.3/31"	
                }	
            ]	
        },	
        {	
            "interface_name": "ge-1/1/4",	
            "interface_configuration": [	
                {	
                    "unit": "0",	
                    "ipv4_address": "172.16.100.151/24"	
                }	
            ]	
        },	
        {	
            "interface_name": "em0",	
            "interface_configuration": [	
                {	
                    "unit": "0",	
                    "ipv4_address": "172.16.100.132/32"	
                }	
            ]	
        },	
        {	
            "interface_name": "fxp0",	
            "interface_configuration": [	
                {	
                    "unit": "0",	
                    "ipv4_address": "172.16.100.131/24"	
                }	
            ]	
        },	
        {	
            "interface_name": "lo0",	
            "interface_configuration": [	
                {	
                    "unit": "0",	
                    "description": " INET.0 : Loopback ",	
                    "ipv4_address": "1.1.1.0/32"	
                },	
                {	
                    "unit": "1",	
                    "description": " VR-CORE : Loopback ",	
                    "ipv4_address": "1.1.1.1/32"	
                },	
                {	
                    "unit": "9",	
                    "description": " VR-INSERTION : Loopback ",	
                    "ipv4_address": "1.1.1.9/32"	
                }	
            ]	
        }	
    ],	
    "routing_options": {	
        "route_type": "static",	
        "destination": "0.0.0.0/0",	
        "nexthop": "172.16.100.253"	
    },	
    "policy_options": {	
        "prefix_list": [	
            {	
                "name": "PL-Empty-Export",	
                "destination": "127.0.0.1/32"	
            },	
            {	
                "name": "PL-Aggregate-Export",	
                "destination": "1.1.1.0/24"	
            },	
            {	
                "name": "AP-BGP-Peers"	
            },	
            {	
                "name": "AP-GRE-Remote-Peers"	
            },	
            {	
                "name": "AP-All-Customers-Prefixes"	
            },	
            {	
                "name": "Anycast-Aggregate",	
                "destination": "1.1.1.128/25"	
            },	
            {	
                "name": "PL-Aggregate-Import",	
                "destination": "86.0.0.0/8"	
            }	
        ],	
        "policy_statement": "NoValidate-MatchAll",	
        "community": [	
            {	
                "name": "VR-DIV-A",	
                "target": [	
                    {	
                        "value": "100"	
                    },	
                    {	
                        "value": "101"	
                    }	
                ]	
            },	
            {	
                "name": "VR-DIV-B",	
                "target": [	
                    {	
                        "value": "100"	
                    },	
                    {	
                        "value": "102"	
                    }	
                ]	
            },	
            {	
                "name": "VR-DIV-C",	
                "target": [	
                    {	
                        "value": "100"	
                    },	
                    {	
                        "value": "102"	
                    }	
                ]	
            }	
        ]	
    },	
    "routing_instance": [	
        {	
            "name": "VR-CORE",	
            "bgpgroup": "ExaBGP-FlowSpec",	
            "neighbor": "172.16.100.115",	
            "peer_as": "65000",	
            "local_as": "65000",	
            "ospf_area": "0.0.0.0"	
        },	
        {	
            "name": "VR-DIV-A",	
            "route_distinguisher": "1.1.1.1:65001",	
            "vrf_target": "100:101",	
            "route_details": {	
                "type": "static",	
                "destination": "0.0.0.0/0",	
                "nexthop": "10.1.1.33"	
            }	
        },	
        {	
            "name": "VR-DIV-B",	
            "route_details": {	
                "type": "static",	
                "destination": "0.0.0.0/0",	
                "nexthop": "10.1.1.35"	
            }	
        },	
        {	
            "name": "VR-DIV-C",	
            "route_details": {	
                "type": "static",	
                "destination": "0.0.0.0/0",	
                "nexthop": "10.1.1.37"	
            }	
        },	
        {	
            "name": "VR-INSERTION",	
            "ospf_area": "0.0.0.0"	
        }	
    ]	
}	
